([('mp4extract.exe',
   'C:\\Users\\yguge\\Documents\\python\\build\\mp4extract\\mp4extract.exe',
   'EXECUTABLE'),
  ('mp4extract.exe.manifest',
   'C:\\Users\\yguge\\Documents\\python\\build\\mp4extract\\mp4extract.exe.manifest',
   'BINARY'),
  ('python37.dll', 'c:\\programdata\\anaconda3\\python37.dll', 'BINARY'),
  ('VCRUNTIME140.dll',
   'c:\\programdata\\anaconda3\\VCRUNTIME140.dll',
   'BINARY'),
  ('api-ms-win-crt-math-l1-1-0.dll',
   'c:\\programdata\\anaconda3\\api-ms-win-crt-math-l1-1-0.dll',
   'BINARY'),
  ('api-ms-win-crt-runtime-l1-1-0.dll',
   'c:\\programdata\\anaconda3\\api-ms-win-crt-runtime-l1-1-0.dll',
   'BINARY'),
  ('api-ms-win-crt-stdio-l1-1-0.dll',
   'c:\\programdata\\anaconda3\\api-ms-win-crt-stdio-l1-1-0.dll',
   'BINARY'),
  ('api-ms-win-crt-locale-l1-1-0.dll',
   'c:\\programdata\\anaconda3\\api-ms-win-crt-locale-l1-1-0.dll',
   'BINARY'),
  ('api-ms-win-crt-heap-l1-1-0.dll',
   'c:\\programdata\\anaconda3\\api-ms-win-crt-heap-l1-1-0.dll',
   'BINARY'),
  ('api-ms-win-crt-convert-l1-1-0.dll',
   'c:\\programdata\\anaconda3\\api-ms-win-crt-convert-l1-1-0.dll',
   'BINARY'),
  ('api-ms-win-crt-environment-l1-1-0.dll',
   'c:\\programdata\\anaconda3\\api-ms-win-crt-environment-l1-1-0.dll',
   'BINARY'),
  ('api-ms-win-crt-string-l1-1-0.dll',
   'c:\\programdata\\anaconda3\\api-ms-win-crt-string-l1-1-0.dll',
   'BINARY'),
  ('api-ms-win-crt-conio-l1-1-0.dll',
   'c:\\programdata\\anaconda3\\api-ms-win-crt-conio-l1-1-0.dll',
   'BINARY'),
  ('api-ms-win-crt-filesystem-l1-1-0.dll',
   'c:\\programdata\\anaconda3\\api-ms-win-crt-filesystem-l1-1-0.dll',
   'BINARY'),
  ('api-ms-win-crt-time-l1-1-0.dll',
   'c:\\programdata\\anaconda3\\api-ms-win-crt-time-l1-1-0.dll',
   'BINARY'),
  ('api-ms-win-crt-process-l1-1-0.dll',
   'c:\\programdata\\anaconda3\\api-ms-win-crt-process-l1-1-0.dll',
   'BINARY'),
  ('ucrtbase.dll', 'c:\\programdata\\anaconda3\\ucrtbase.dll', 'BINARY'),
  ('api-ms-win-core-heap-l1-1-0.dll',
   'c:\\programdata\\anaconda3\\api-ms-win-core-heap-l1-1-0.dll',
   'BINARY'),
  ('api-ms-win-core-rtlsupport-l1-1-0.dll',
   'c:\\programdata\\anaconda3\\api-ms-win-core-rtlsupport-l1-1-0.dll',
   'BINARY'),
  ('api-ms-win-core-namedpipe-l1-1-0.dll',
   'c:\\programdata\\anaconda3\\api-ms-win-core-namedpipe-l1-1-0.dll',
   'BINARY'),
  ('api-ms-win-core-handle-l1-1-0.dll',
   'c:\\programdata\\anaconda3\\api-ms-win-core-handle-l1-1-0.dll',
   'BINARY'),
  ('api-ms-win-core-errorhandling-l1-1-0.dll',
   'c:\\programdata\\anaconda3\\api-ms-win-core-errorhandling-l1-1-0.dll',
   'BINARY'),
  ('api-ms-win-core-debug-l1-1-0.dll',
   'c:\\programdata\\anaconda3\\api-ms-win-core-debug-l1-1-0.dll',
   'BINARY'),
  ('api-ms-win-core-profile-l1-1-0.dll',
   'c:\\programdata\\anaconda3\\api-ms-win-core-profile-l1-1-0.dll',
   'BINARY'),
  ('api-ms-win-core-util-l1-1-0.dll',
   'c:\\programdata\\anaconda3\\api-ms-win-core-util-l1-1-0.dll',
   'BINARY'),
  ('api-ms-win-core-sysinfo-l1-1-0.dll',
   'c:\\programdata\\anaconda3\\api-ms-win-core-sysinfo-l1-1-0.dll',
   'BINARY'),
  ('api-ms-win-core-interlocked-l1-1-0.dll',
   'c:\\programdata\\anaconda3\\api-ms-win-core-interlocked-l1-1-0.dll',
   'BINARY'),
  ('api-ms-win-core-file-l1-1-0.dll',
   'c:\\programdata\\anaconda3\\api-ms-win-core-file-l1-1-0.dll',
   'BINARY'),
  ('api-ms-win-core-timezone-l1-1-0.dll',
   'c:\\programdata\\anaconda3\\api-ms-win-core-timezone-l1-1-0.dll',
   'BINARY'),
  ('api-ms-win-core-processthreads-l1-1-1.dll',
   'c:\\programdata\\anaconda3\\api-ms-win-core-processthreads-l1-1-1.dll',
   'BINARY'),
  ('api-ms-win-core-processthreads-l1-1-0.dll',
   'c:\\programdata\\anaconda3\\api-ms-win-core-processthreads-l1-1-0.dll',
   'BINARY'),
  ('api-ms-win-core-string-l1-1-0.dll',
   'c:\\programdata\\anaconda3\\api-ms-win-core-string-l1-1-0.dll',
   'BINARY'),
  ('api-ms-win-core-file-l2-1-0.dll',
   'c:\\programdata\\anaconda3\\api-ms-win-core-file-l2-1-0.dll',
   'BINARY'),
  ('api-ms-win-core-localization-l1-2-0.dll',
   'c:\\programdata\\anaconda3\\api-ms-win-core-localization-l1-2-0.dll',
   'BINARY'),
  ('api-ms-win-core-console-l1-1-0.dll',
   'c:\\programdata\\anaconda3\\api-ms-win-core-console-l1-1-0.dll',
   'BINARY'),
  ('api-ms-win-core-processenvironment-l1-1-0.dll',
   'c:\\programdata\\anaconda3\\api-ms-win-core-processenvironment-l1-1-0.dll',
   'BINARY'),
  ('api-ms-win-core-memory-l1-1-0.dll',
   'c:\\programdata\\anaconda3\\api-ms-win-core-memory-l1-1-0.dll',
   'BINARY'),
  ('api-ms-win-core-libraryloader-l1-1-0.dll',
   'c:\\programdata\\anaconda3\\api-ms-win-core-libraryloader-l1-1-0.dll',
   'BINARY'),
  ('api-ms-win-core-file-l1-2-0.dll',
   'c:\\programdata\\anaconda3\\api-ms-win-core-file-l1-2-0.dll',
   'BINARY'),
  ('api-ms-win-core-synch-l1-2-0.dll',
   'c:\\programdata\\anaconda3\\api-ms-win-core-synch-l1-2-0.dll',
   'BINARY'),
  ('api-ms-win-core-datetime-l1-1-0.dll',
   'c:\\programdata\\anaconda3\\api-ms-win-core-datetime-l1-1-0.dll',
   'BINARY'),
  ('api-ms-win-core-synch-l1-1-0.dll',
   'c:\\programdata\\anaconda3\\api-ms-win-core-synch-l1-1-0.dll',
   'BINARY'),
  ('_ssl', 'c:\\programdata\\anaconda3\\DLLs\\_ssl.pyd', 'EXTENSION'),
  ('_queue', 'c:\\programdata\\anaconda3\\DLLs\\_queue.pyd', 'EXTENSION'),
  ('win32api',
   'c:\\programdata\\anaconda3\\lib\\site-packages\\win32\\win32api.pyd',
   'EXTENSION'),
  ('win32evtlog',
   'c:\\programdata\\anaconda3\\lib\\site-packages\\win32\\win32evtlog.pyd',
   'EXTENSION'),
  ('_ctypes', 'c:\\programdata\\anaconda3\\DLLs\\_ctypes.pyd', 'EXTENSION'),
  ('pyexpat', 'c:\\programdata\\anaconda3\\DLLs\\pyexpat.pyd', 'EXTENSION'),
  ('unicodedata',
   'c:\\programdata\\anaconda3\\DLLs\\unicodedata.pyd',
   'EXTENSION'),
  ('_hashlib', 'c:\\programdata\\anaconda3\\DLLs\\_hashlib.pyd', 'EXTENSION'),
  ('select', 'c:\\programdata\\anaconda3\\DLLs\\select.pyd', 'EXTENSION'),
  ('_bz2', 'c:\\programdata\\anaconda3\\DLLs\\_bz2.pyd', 'EXTENSION'),
  ('_lzma', 'c:\\programdata\\anaconda3\\DLLs\\_lzma.pyd', 'EXTENSION'),
  ('_socket', 'c:\\programdata\\anaconda3\\DLLs\\_socket.pyd', 'EXTENSION'),
  ('libcrypto-1_1-x64.dll',
   'C:\\ProgramData\\Anaconda3\\Library\\bin\\libcrypto-1_1-x64.dll',
   'BINARY'),
  ('libssl-1_1-x64.dll',
   'C:\\ProgramData\\Anaconda3\\Library\\bin\\libssl-1_1-x64.dll',
   'BINARY'),
  ('pywintypes37.dll',
   'c:\\programdata\\anaconda3\\lib\\site-packages\\win32\\pywintypes37.dll',
   'BINARY'),
  ('api-ms-win-crt-utility-l1-1-0.dll',
   'C:\\ProgramData\\Anaconda3\\Library\\bin\\api-ms-win-crt-utility-l1-1-0.dll',
   'BINARY'),
  ('base_library.zip',
   'C:\\Users\\yguge\\Documents\\python\\build\\mp4extract\\base_library.zip',
   'DATA')],)
