('C:\\Users\\yguge\\Documents\\python\\build\\mp4extract\\PYZ-00.pyz',
 [('ntpath', 'c:\\programdata\\anaconda3\\lib\\ntpath.py', 'PYMODULE'),
  ('_strptime', 'c:\\programdata\\anaconda3\\lib\\_strptime.py', 'PYMODULE'),
  ('datetime', 'c:\\programdata\\anaconda3\\lib\\datetime.py', 'PYMODULE'),
  ('stringprep', 'c:\\programdata\\anaconda3\\lib\\stringprep.py', 'PYMODULE'),
  ('_py_abc', 'c:\\programdata\\anaconda3\\lib\\_py_abc.py', 'PYMODULE'),
  ('typing', 'c:\\programdata\\anaconda3\\lib\\typing.py', 'PYMODULE'),
  ('tracemalloc',
   'c:\\programdata\\anaconda3\\lib\\tracemalloc.py',
   'PYMODULE'),
  ('__future__', 'c:\\programdata\\anaconda3\\lib\\__future__.py', 'PYMODULE'),
  ('difflib', 'c:\\programdata\\anaconda3\\lib\\difflib.py', 'PYMODULE'),
  ('ast', 'c:\\programdata\\anaconda3\\lib\\ast.py', 'PYMODULE'),
  ('inspect', 'c:\\programdata\\anaconda3\\lib\\inspect.py', 'PYMODULE'),
  ('cmd', 'c:\\programdata\\anaconda3\\lib\\cmd.py', 'PYMODULE'),
  ('bdb', 'c:\\programdata\\anaconda3\\lib\\bdb.py', 'PYMODULE'),
  ('opcode', 'c:\\programdata\\anaconda3\\lib\\opcode.py', 'PYMODULE'),
  ('dis', 'c:\\programdata\\anaconda3\\lib\\dis.py', 'PYMODULE'),
  ('codeop', 'c:\\programdata\\anaconda3\\lib\\codeop.py', 'PYMODULE'),
  ('code', 'c:\\programdata\\anaconda3\\lib\\code.py', 'PYMODULE'),
  ('glob', 'c:\\programdata\\anaconda3\\lib\\glob.py', 'PYMODULE'),
  ('pyreadline.rlmain',
   'c:\\programdata\\anaconda3\\lib\\site-packages\\pyreadline\\rlmain.py',
   'PYMODULE'),
  ('pyreadline.clipboard.ironpython_clipboard',
   'c:\\programdata\\anaconda3\\lib\\site-packages\\pyreadline\\clipboard\\ironpython_clipboard.py',
   'PYMODULE'),
  ('pyreadline.clipboard.no_clipboard',
   'c:\\programdata\\anaconda3\\lib\\site-packages\\pyreadline\\clipboard\\no_clipboard.py',
   'PYMODULE'),
  ('pyreadline.clipboard.win32_clipboard',
   'c:\\programdata\\anaconda3\\lib\\site-packages\\pyreadline\\clipboard\\win32_clipboard.py',
   'PYMODULE'),
  ('pyreadline.clipboard',
   'c:\\programdata\\anaconda3\\lib\\site-packages\\pyreadline\\clipboard\\__init__.py',
   'PYMODULE'),
  ('pyreadline.lineeditor',
   'c:\\programdata\\anaconda3\\lib\\site-packages\\pyreadline\\lineeditor\\__init__.py',
   'PYMODULE'),
  ('pyreadline.error',
   'c:\\programdata\\anaconda3\\lib\\site-packages\\pyreadline\\error.py',
   'PYMODULE'),
  ('pyreadline.modes.basemode',
   'c:\\programdata\\anaconda3\\lib\\site-packages\\pyreadline\\modes\\basemode.py',
   'PYMODULE'),
  ('pyreadline.modes.emacs',
   'c:\\programdata\\anaconda3\\lib\\site-packages\\pyreadline\\modes\\emacs.py',
   'PYMODULE'),
  ('pyreadline.modes.notemacs',
   'c:\\programdata\\anaconda3\\lib\\site-packages\\pyreadline\\modes\\notemacs.py',
   'PYMODULE'),
  ('pyreadline.lineeditor.wordmatcher',
   'c:\\programdata\\anaconda3\\lib\\site-packages\\pyreadline\\lineeditor\\wordmatcher.py',
   'PYMODULE'),
  ('pyreadline.lineeditor.lineobj',
   'c:\\programdata\\anaconda3\\lib\\site-packages\\pyreadline\\lineeditor\\lineobj.py',
   'PYMODULE'),
  ('pyreadline.lineeditor.history',
   'c:\\programdata\\anaconda3\\lib\\site-packages\\pyreadline\\lineeditor\\history.py',
   'PYMODULE'),
  ('pyreadline.modes.vi',
   'c:\\programdata\\anaconda3\\lib\\site-packages\\pyreadline\\modes\\vi.py',
   'PYMODULE'),
  ('pyreadline.modes',
   'c:\\programdata\\anaconda3\\lib\\site-packages\\pyreadline\\modes\\__init__.py',
   'PYMODULE'),
  ('pyreadline.release',
   'c:\\programdata\\anaconda3\\lib\\site-packages\\pyreadline\\release.py',
   'PYMODULE'),
  ('pyreadline',
   'c:\\programdata\\anaconda3\\lib\\site-packages\\pyreadline\\__init__.py',
   'PYMODULE'),
  ('pyreadline.console.ironpython_console',
   'c:\\programdata\\anaconda3\\lib\\site-packages\\pyreadline\\console\\ironpython_console.py',
   'PYMODULE'),
  ('pyreadline.py3k_compat',
   'c:\\programdata\\anaconda3\\lib\\site-packages\\pyreadline\\py3k_compat.py',
   'PYMODULE'),
  ('pyreadline.unicode_helper',
   'c:\\programdata\\anaconda3\\lib\\site-packages\\pyreadline\\unicode_helper.py',
   'PYMODULE'),
  ('queue', 'c:\\programdata\\anaconda3\\lib\\queue.py', 'PYMODULE'),
  ('hmac', 'c:\\programdata\\anaconda3\\lib\\hmac.py', 'PYMODULE'),
  ('smtplib', 'c:\\programdata\\anaconda3\\lib\\smtplib.py', 'PYMODULE'),
  ('win32con',
   'c:\\programdata\\anaconda3\\lib\\site-packages\\win32\\lib\\win32con.py',
   'PYMODULE'),
  ('winerror',
   'c:\\programdata\\anaconda3\\lib\\site-packages\\win32\\lib\\winerror.py',
   'PYMODULE'),
  ('win32evtlogutil',
   'c:\\programdata\\anaconda3\\lib\\site-packages\\win32\\lib\\win32evtlogutil.py',
   'PYMODULE'),
  ('logging.handlers',
   'c:\\programdata\\anaconda3\\lib\\logging\\handlers.py',
   'PYMODULE'),
  ('pyreadline.logger',
   'c:\\programdata\\anaconda3\\lib\\site-packages\\pyreadline\\logger.py',
   'PYMODULE'),
  ('pyreadline.keysyms.winconstants',
   'c:\\programdata\\anaconda3\\lib\\site-packages\\pyreadline\\keysyms\\winconstants.py',
   'PYMODULE'),
  ('pyreadline.keysyms.ironpython_keysyms',
   'c:\\programdata\\anaconda3\\lib\\site-packages\\pyreadline\\keysyms\\ironpython_keysyms.py',
   'PYMODULE'),
  ('pyreadline.keysyms.common',
   'c:\\programdata\\anaconda3\\lib\\site-packages\\pyreadline\\keysyms\\common.py',
   'PYMODULE'),
  ('pyreadline.keysyms.keysyms',
   'c:\\programdata\\anaconda3\\lib\\site-packages\\pyreadline\\keysyms\\keysyms.py',
   'PYMODULE'),
  ('pyreadline.keysyms',
   'c:\\programdata\\anaconda3\\lib\\site-packages\\pyreadline\\keysyms\\__init__.py',
   'PYMODULE'),
  ('pyreadline.console.ansi',
   'c:\\programdata\\anaconda3\\lib\\site-packages\\pyreadline\\console\\ansi.py',
   'PYMODULE'),
  ('ctypes.macholib.framework',
   'c:\\programdata\\anaconda3\\lib\\ctypes\\macholib\\framework.py',
   'PYMODULE'),
  ('ctypes.macholib.dylib',
   'c:\\programdata\\anaconda3\\lib\\ctypes\\macholib\\dylib.py',
   'PYMODULE'),
  ('ctypes.macholib',
   'c:\\programdata\\anaconda3\\lib\\ctypes\\macholib\\__init__.py',
   'PYMODULE'),
  ('ctypes.macholib.dyld',
   'c:\\programdata\\anaconda3\\lib\\ctypes\\macholib\\dyld.py',
   'PYMODULE'),
  ('ctypes._aix',
   'c:\\programdata\\anaconda3\\lib\\ctypes\\_aix.py',
   'PYMODULE'),
  ('ctypes.util',
   'c:\\programdata\\anaconda3\\lib\\ctypes\\util.py',
   'PYMODULE'),
  ('ctypes._endian',
   'c:\\programdata\\anaconda3\\lib\\ctypes\\_endian.py',
   'PYMODULE'),
  ('ctypes',
   'c:\\programdata\\anaconda3\\lib\\ctypes\\__init__.py',
   'PYMODULE'),
  ('ctypes.wintypes',
   'c:\\programdata\\anaconda3\\lib\\ctypes\\wintypes.py',
   'PYMODULE'),
  ('pyreadline.console.event',
   'c:\\programdata\\anaconda3\\lib\\site-packages\\pyreadline\\console\\event.py',
   'PYMODULE'),
  ('pyreadline.console.console',
   'c:\\programdata\\anaconda3\\lib\\site-packages\\pyreadline\\console\\console.py',
   'PYMODULE'),
  ('pyreadline.console',
   'c:\\programdata\\anaconda3\\lib\\site-packages\\pyreadline\\console\\__init__.py',
   'PYMODULE'),
  ('readline',
   'c:\\programdata\\anaconda3\\lib\\site-packages\\readline.py',
   'PYMODULE'),
  ('shlex', 'c:\\programdata\\anaconda3\\lib\\shlex.py', 'PYMODULE'),
  ('runpy', 'c:\\programdata\\anaconda3\\lib\\runpy.py', 'PYMODULE'),
  ('importlib._bootstrap',
   'c:\\programdata\\anaconda3\\lib\\importlib\\_bootstrap.py',
   'PYMODULE'),
  ('importlib._bootstrap_external',
   'c:\\programdata\\anaconda3\\lib\\importlib\\_bootstrap_external.py',
   'PYMODULE'),
  ('importlib.machinery',
   'c:\\programdata\\anaconda3\\lib\\importlib\\machinery.py',
   'PYMODULE'),
  ('importlib.util',
   'c:\\programdata\\anaconda3\\lib\\importlib\\util.py',
   'PYMODULE'),
  ('importlib.abc',
   'c:\\programdata\\anaconda3\\lib\\importlib\\abc.py',
   'PYMODULE'),
  ('importlib',
   'c:\\programdata\\anaconda3\\lib\\importlib\\__init__.py',
   'PYMODULE'),
  ('pkgutil', 'c:\\programdata\\anaconda3\\lib\\pkgutil.py', 'PYMODULE'),
  ('xml', 'c:\\programdata\\anaconda3\\lib\\xml\\__init__.py', 'PYMODULE'),
  ('xml.sax.expatreader',
   'c:\\programdata\\anaconda3\\lib\\xml\\sax\\expatreader.py',
   'PYMODULE'),
  ('xml.sax.saxutils',
   'c:\\programdata\\anaconda3\\lib\\xml\\sax\\saxutils.py',
   'PYMODULE'),
  ('urllib.request',
   'c:\\programdata\\anaconda3\\lib\\urllib\\request.py',
   'PYMODULE'),
  ('getpass', 'c:\\programdata\\anaconda3\\lib\\getpass.py', 'PYMODULE'),
  ('nturl2path', 'c:\\programdata\\anaconda3\\lib\\nturl2path.py', 'PYMODULE'),
  ('ftplib', 'c:\\programdata\\anaconda3\\lib\\ftplib.py', 'PYMODULE'),
  ('netrc', 'c:\\programdata\\anaconda3\\lib\\netrc.py', 'PYMODULE'),
  ('http.cookiejar',
   'c:\\programdata\\anaconda3\\lib\\http\\cookiejar.py',
   'PYMODULE'),
  ('urllib.response',
   'c:\\programdata\\anaconda3\\lib\\urllib\\response.py',
   'PYMODULE'),
  ('urllib.error',
   'c:\\programdata\\anaconda3\\lib\\urllib\\error.py',
   'PYMODULE'),
  ('xml.sax',
   'c:\\programdata\\anaconda3\\lib\\xml\\sax\\__init__.py',
   'PYMODULE'),
  ('xml.sax.handler',
   'c:\\programdata\\anaconda3\\lib\\xml\\sax\\handler.py',
   'PYMODULE'),
  ('xml.sax._exceptions',
   'c:\\programdata\\anaconda3\\lib\\xml\\sax\\_exceptions.py',
   'PYMODULE'),
  ('xml.sax.xmlreader',
   'c:\\programdata\\anaconda3\\lib\\xml\\sax\\xmlreader.py',
   'PYMODULE'),
  ('xml.parsers',
   'c:\\programdata\\anaconda3\\lib\\xml\\parsers\\__init__.py',
   'PYMODULE'),
  ('xml.parsers.expat',
   'c:\\programdata\\anaconda3\\lib\\xml\\parsers\\expat.py',
   'PYMODULE'),
  ('plistlib', 'c:\\programdata\\anaconda3\\lib\\plistlib.py', 'PYMODULE'),
  ('platform', 'c:\\programdata\\anaconda3\\lib\\platform.py', 'PYMODULE'),
  ('token', 'c:\\programdata\\anaconda3\\lib\\token.py', 'PYMODULE'),
  ('tokenize', 'c:\\programdata\\anaconda3\\lib\\tokenize.py', 'PYMODULE'),
  ('urllib.parse',
   'c:\\programdata\\anaconda3\\lib\\urllib\\parse.py',
   'PYMODULE'),
  ('tempfile', 'c:\\programdata\\anaconda3\\lib\\tempfile.py', 'PYMODULE'),
  ('subprocess', 'c:\\programdata\\anaconda3\\lib\\subprocess.py', 'PYMODULE'),
  ('tty', 'c:\\programdata\\anaconda3\\lib\\tty.py', 'PYMODULE'),
  ('pydoc_data',
   'c:\\programdata\\anaconda3\\lib\\pydoc_data\\__init__.py',
   'PYMODULE'),
  ('pydoc_data.topics',
   'c:\\programdata\\anaconda3\\lib\\pydoc_data\\topics.py',
   'PYMODULE'),
  ('html.entities',
   'c:\\programdata\\anaconda3\\lib\\html\\entities.py',
   'PYMODULE'),
  ('html', 'c:\\programdata\\anaconda3\\lib\\html\\__init__.py', 'PYMODULE'),
  ('ssl', 'c:\\programdata\\anaconda3\\lib\\ssl.py', 'PYMODULE'),
  ('http.client',
   'c:\\programdata\\anaconda3\\lib\\http\\client.py',
   'PYMODULE'),
  ('mimetypes', 'c:\\programdata\\anaconda3\\lib\\mimetypes.py', 'PYMODULE'),
  ('socketserver',
   'c:\\programdata\\anaconda3\\lib\\socketserver.py',
   'PYMODULE'),
  ('http', 'c:\\programdata\\anaconda3\\lib\\http\\__init__.py', 'PYMODULE'),
  ('http.server',
   'c:\\programdata\\anaconda3\\lib\\http\\server.py',
   'PYMODULE'),
  ('optparse', 'c:\\programdata\\anaconda3\\lib\\optparse.py', 'PYMODULE'),
  ('uu', 'c:\\programdata\\anaconda3\\lib\\uu.py', 'PYMODULE'),
  ('quopri', 'c:\\programdata\\anaconda3\\lib\\quopri.py', 'PYMODULE'),
  ('email.feedparser',
   'c:\\programdata\\anaconda3\\lib\\email\\feedparser.py',
   'PYMODULE'),
  ('email.parser',
   'c:\\programdata\\anaconda3\\lib\\email\\parser.py',
   'PYMODULE'),
  ('email', 'c:\\programdata\\anaconda3\\lib\\email\\__init__.py', 'PYMODULE'),
  ('calendar', 'c:\\programdata\\anaconda3\\lib\\calendar.py', 'PYMODULE'),
  ('email._parseaddr',
   'c:\\programdata\\anaconda3\\lib\\email\\_parseaddr.py',
   'PYMODULE'),
  ('email.utils',
   'c:\\programdata\\anaconda3\\lib\\email\\utils.py',
   'PYMODULE'),
  ('email.errors',
   'c:\\programdata\\anaconda3\\lib\\email\\errors.py',
   'PYMODULE'),
  ('email.header',
   'c:\\programdata\\anaconda3\\lib\\email\\header.py',
   'PYMODULE'),
  ('email._policybase',
   'c:\\programdata\\anaconda3\\lib\\email\\_policybase.py',
   'PYMODULE'),
  ('email.base64mime',
   'c:\\programdata\\anaconda3\\lib\\email\\base64mime.py',
   'PYMODULE'),
  ('email.encoders',
   'c:\\programdata\\anaconda3\\lib\\email\\encoders.py',
   'PYMODULE'),
  ('email.charset',
   'c:\\programdata\\anaconda3\\lib\\email\\charset.py',
   'PYMODULE'),
  ('base64', 'c:\\programdata\\anaconda3\\lib\\base64.py', 'PYMODULE'),
  ('email._encoded_words',
   'c:\\programdata\\anaconda3\\lib\\email\\_encoded_words.py',
   'PYMODULE'),
  ('hashlib', 'c:\\programdata\\anaconda3\\lib\\hashlib.py', 'PYMODULE'),
  ('bisect', 'c:\\programdata\\anaconda3\\lib\\bisect.py', 'PYMODULE'),
  ('random', 'c:\\programdata\\anaconda3\\lib\\random.py', 'PYMODULE'),
  ('email.generator',
   'c:\\programdata\\anaconda3\\lib\\email\\generator.py',
   'PYMODULE'),
  ('email.iterators',
   'c:\\programdata\\anaconda3\\lib\\email\\iterators.py',
   'PYMODULE'),
  ('urllib',
   'c:\\programdata\\anaconda3\\lib\\urllib\\__init__.py',
   'PYMODULE'),
  ('email._header_value_parser',
   'c:\\programdata\\anaconda3\\lib\\email\\_header_value_parser.py',
   'PYMODULE'),
  ('email.headerregistry',
   'c:\\programdata\\anaconda3\\lib\\email\\headerregistry.py',
   'PYMODULE'),
  ('email.quoprimime',
   'c:\\programdata\\anaconda3\\lib\\email\\quoprimime.py',
   'PYMODULE'),
  ('email.contentmanager',
   'c:\\programdata\\anaconda3\\lib\\email\\contentmanager.py',
   'PYMODULE'),
  ('email.policy',
   'c:\\programdata\\anaconda3\\lib\\email\\policy.py',
   'PYMODULE'),
  ('email.message',
   'c:\\programdata\\anaconda3\\lib\\email\\message.py',
   'PYMODULE'),
  ('bz2', 'c:\\programdata\\anaconda3\\lib\\bz2.py', 'PYMODULE'),
  ('lzma', 'c:\\programdata\\anaconda3\\lib\\lzma.py', 'PYMODULE'),
  ('_compression',
   'c:\\programdata\\anaconda3\\lib\\_compression.py',
   'PYMODULE'),
  ('gzip', 'c:\\programdata\\anaconda3\\lib\\gzip.py', 'PYMODULE'),
  ('tarfile', 'c:\\programdata\\anaconda3\\lib\\tarfile.py', 'PYMODULE'),
  ('py_compile', 'c:\\programdata\\anaconda3\\lib\\py_compile.py', 'PYMODULE'),
  ('zipfile', 'c:\\programdata\\anaconda3\\lib\\zipfile.py', 'PYMODULE'),
  ('selectors', 'c:\\programdata\\anaconda3\\lib\\selectors.py', 'PYMODULE'),
  ('socket', 'c:\\programdata\\anaconda3\\lib\\socket.py', 'PYMODULE'),
  ('webbrowser', 'c:\\programdata\\anaconda3\\lib\\webbrowser.py', 'PYMODULE'),
  ('pydoc', 'c:\\programdata\\anaconda3\\lib\\pydoc.py', 'PYMODULE'),
  ('getopt', 'c:\\programdata\\anaconda3\\lib\\getopt.py', 'PYMODULE'),
  ('pdb', 'c:\\programdata\\anaconda3\\lib\\pdb.py', 'PYMODULE'),
  ('unittest.util',
   'c:\\programdata\\anaconda3\\lib\\unittest\\util.py',
   'PYMODULE'),
  ('unittest.result',
   'c:\\programdata\\anaconda3\\lib\\unittest\\result.py',
   'PYMODULE'),
  ('string', 'c:\\programdata\\anaconda3\\lib\\string.py', 'PYMODULE'),
  ('_threading_local',
   'c:\\programdata\\anaconda3\\lib\\_threading_local.py',
   'PYMODULE'),
  ('threading', 'c:\\programdata\\anaconda3\\lib\\threading.py', 'PYMODULE'),
  ('_compat_pickle',
   'c:\\programdata\\anaconda3\\lib\\_compat_pickle.py',
   'PYMODULE'),
  ('pickle', 'c:\\programdata\\anaconda3\\lib\\pickle.py', 'PYMODULE'),
  ('logging',
   'c:\\programdata\\anaconda3\\lib\\logging\\__init__.py',
   'PYMODULE'),
  ('pprint', 'c:\\programdata\\anaconda3\\lib\\pprint.py', 'PYMODULE'),
  ('contextlib', 'c:\\programdata\\anaconda3\\lib\\contextlib.py', 'PYMODULE'),
  ('unittest.case',
   'c:\\programdata\\anaconda3\\lib\\unittest\\case.py',
   'PYMODULE'),
  ('unittest.suite',
   'c:\\programdata\\anaconda3\\lib\\unittest\\suite.py',
   'PYMODULE'),
  ('stat', 'c:\\programdata\\anaconda3\\lib\\stat.py', 'PYMODULE'),
  ('genericpath',
   'c:\\programdata\\anaconda3\\lib\\genericpath.py',
   'PYMODULE'),
  ('posixpath', 'c:\\programdata\\anaconda3\\lib\\posixpath.py', 'PYMODULE'),
  ('fnmatch', 'c:\\programdata\\anaconda3\\lib\\fnmatch.py', 'PYMODULE'),
  ('unittest.loader',
   'c:\\programdata\\anaconda3\\lib\\unittest\\loader.py',
   'PYMODULE'),
  ('unittest.runner',
   'c:\\programdata\\anaconda3\\lib\\unittest\\runner.py',
   'PYMODULE'),
  ('unittest.main',
   'c:\\programdata\\anaconda3\\lib\\unittest\\main.py',
   'PYMODULE'),
  ('signal', 'c:\\programdata\\anaconda3\\lib\\signal.py', 'PYMODULE'),
  ('unittest.signals',
   'c:\\programdata\\anaconda3\\lib\\unittest\\signals.py',
   'PYMODULE'),
  ('unittest',
   'c:\\programdata\\anaconda3\\lib\\unittest\\__init__.py',
   'PYMODULE'),
  ('struct', 'c:\\programdata\\anaconda3\\lib\\struct.py', 'PYMODULE'),
  ('gettext', 'c:\\programdata\\anaconda3\\lib\\gettext.py', 'PYMODULE'),
  ('textwrap', 'c:\\programdata\\anaconda3\\lib\\textwrap.py', 'PYMODULE'),
  ('argparse', 'c:\\programdata\\anaconda3\\lib\\argparse.py', 'PYMODULE'),
  ('doctest', 'c:\\programdata\\anaconda3\\lib\\doctest.py', 'PYMODULE'),
  ('copy', 'c:\\programdata\\anaconda3\\lib\\copy.py', 'PYMODULE'),
  ('shutil', 'c:\\programdata\\anaconda3\\lib\\shutil.py', 'PYMODULE'),
  ('os', 'c:\\programdata\\anaconda3\\lib\\os.py', 'PYMODULE')])
